{
  "images" : [
    {
      "filename" : "awi marketmdpi.png",
      "idiom" : "universal",
      "scale" : "1x"
    },
    {
      "filename" : "awi marketxhdpi.png",
      "idiom" : "universal",
      "scale" : "2x"
    },
    {
      "filename" : "awi marketxxhdpi.png",
      "idiom" : "universal",
      "scale" : "3x"
    }
  ],
  "info" : {
    "author" : "xcode",
    "version" : 1
  }
}
